{
  "description": "CertificateSigningRequest objects provide a mechanism to obtain x509 certificates by submitting a certificate signing request, and having it asynchronously approved and issued.\n\nKubelets use this API to obtain:\n 1. client certificates to authenticate to kube-apiserver (with the \"kubernetes.io/kube-apiserver-client-kubelet\" signerName).\n 2. serving certificates for TLS endpoints kube-apiserver can connect to securely (with the \"kubernetes.io/kubelet-serving\" signerName).\n\nThis API can be used to request client certificates to authenticate to kube-apiserver (with the \"kubernetes.io/kube-apiserver-client\" signerName), or to obtain certificates from custom non-Kubernetes signers.",
  "properties": {
    "apiVersion": {
      "description": "APIVersion defines the versioned schema of this representation of an object. Servers should convert recognized schemas to the latest internal value, and may reject unrecognized values. More info: https://git.k8s.io/community/contributors/devel/sig-architecture/api-conventions.md#resources",
      "type": [
        "string",
        "null"
      ]
    },
    "kind": {
      "description": "Kind is a string value representing the REST resource this object represents. Servers may infer this from the endpoint the client submits requests to. Cannot be updated. In CamelCase. More info: https://git.k8s.io/community/contributors/devel/sig-architecture/api-conventions.md#types-kinds",
      "type": [
        "string",
        "null"
      ],
      "enum": [
        "CertificateSigningRequest"
      ]
    },
    "metadata": {
      "description": "ObjectMeta is metadata that all persisted resources must have, which includes all objects users must create.",
      "properties": {
        "annotations": {
          "additionalProperties": {
            "type": [
              "string",
              "null"
            ]
          },
          "description": "Annotations is an unstructured key value map stored with a resource that may be set by external tools to store and retrieve arbitrary metadata. They are not queryable and should be preserved when modifying objects. More info: http://kubernetes.io/docs/user-guide/annotations",
          "type": [
            "object",
            "null"
          ]
        },
        "clusterName": {
          "description": "The name of the cluster which the object belongs to. This is used to distinguish resources with same name and namespace in different clusters. This field is not set anywhere right now and apiserver is going to ignore it if set in create or update request.",
          "type": [
            "string",
            "null"
          ]
        },
        "creationTimestamp": {
          "description": "Time is a wrapper around time.Time which supports correct marshaling to YAML and JSON.  Wrappers are provided for many of the factory methods that the time package offers.",
          "format": "date-time",
          "type": [
            "string",
            "null"
          ]
        },
        "deletionGracePeriodSeconds": {
          "description": "Number of seconds allowed for this object to gracefully terminate before it will be removed from the system. Only set when deletionTimestamp is also set. May only be shortened. Read-only.",
          "format": "int64",
          "type": [
            "integer",
            "null"
          ]
        },
        "deletionTimestamp": {
          "description": "Time is a wrapper around time.Time which supports correct marshaling to YAML and JSON.  Wrappers are provided for many of the factory methods that the time package offers.",
          "format": "date-time",
          "type": [
            "string",
            "null"
          ]
        },
        "finalizers": {
          "description": "Must be empty before the object is deleted from the registry. Each entry is an identifier for the responsible component that will remove the entry from the list. If the deletionTimestamp of the object is non-nil, entries in this list can only be removed. Finalizers may be processed and removed in any order.  Order is NOT enforced because it introduces significant risk of stuck finalizers. finalizers is a shared field, any actor with permission can reorder it. If the finalizer list is processed in order, then this can lead to a situation in which the component responsible for the first finalizer in the list is waiting for a signal (field value, external system, or other) produced by a component responsible for a finalizer later in the list, resulting in a deadlock. Without enforced ordering finalizers are free to order amongst themselves and are not vulnerable to ordering changes in the list.",
          "items": {
            "type": [
              "string",
              "null"
            ]
          },
          "type": [
            "array",
            "null"
          ],
          "x-kubernetes-patch-strategy": "merge"
        },
        "generateName": {
          "description": "GenerateName is an optional prefix, used by the server, to generate a unique name ONLY IF the Name field has not been provided. If this field is used, the name returned to the client will be different than the name passed. This value will also be combined with a unique suffix. The provided value has the same validation rules as the Name field, and may be truncated by the length of the suffix required to make the value unique on the server.\n\nIf this field is specified and the generated name exists, the server will NOT return a 409 - instead, it will either return 201 Created or 500 with Reason ServerTimeout indicating a unique name could not be found in the time allotted, and the client should retry (optionally after the time indicated in the Retry-After header).\n\nApplied only if Name is not specified. More info: https://git.k8s.io/community/contributors/devel/sig-architecture/api-conventions.md#idempotency",
          "type": [
            "string",
            "null"
          ]
        },
        "generation": {
          "description": "A sequence number representing a specific generation of the desired state. Populated by the system. Read-only.",
          "format": "int64",
          "type": [
            "integer",
            "null"
          ]
        },
        "labels": {
          "additionalProperties": {
            "type": [
              "string",
              "null"
            ]
          },
          "description": "Map of string keys and values that can be used to organize and categorize (scope and select) objects. May match selectors of replication controllers and services. More info: http://kubernetes.io/docs/user-guide/labels",
          "type": [
            "object",
            "null"
          ]
        },
        "managedFields": {
          "description": "ManagedFields maps workflow-id and version to the set of fields that are managed by that workflow. This is mostly for internal housekeeping, and users typically shouldn't need to set or understand this field. A workflow can be the user's name, a controller's name, or the name of a specific apply path like \"ci-cd\". The set of fields is always in the version that the workflow used when modifying the object.",
          "items": {
            "description": "ManagedFieldsEntry is a workflow-id, a FieldSet and the group version of the resource that the fieldset applies to.",
            "properties": {
              "apiVersion": {
                "description": "APIVersion defines the version of this resource that this field set applies to. The format is \"group/version\" just like the top-level APIVersion field. It is necessary to track the version of a field set because it cannot be automatically converted.",
                "type": [
                  "string",
                  "null"
                ]
              },
              "fieldsType": {
                "description": "FieldsType is the discriminator for the different fields format and version. There is currently only one possible value: \"FieldsV1\"",
                "type": [
                  "string",
                  "null"
                ]
              },
              "fieldsV1": {
                "description": "FieldsV1 stores a set of fields in a data structure like a Trie, in JSON format.\n\nEach key is either a '.' representing the field itself, and will always map to an empty set, or a string representing a sub-field or item. The string will follow one of these four formats: 'f:<name>', where <name> is the name of a field in a struct, or key in a map 'v:<value>', where <value> is the exact json formatted value of a list item 'i:<index>', where <index> is position of a item in a list 'k:<keys>', where <keys> is a map of  a list item's key fields to their unique values If a key maps to an empty Fields value, the field that key represents is part of the set.\n\nThe exact format is defined in sigs.k8s.io/structured-merge-diff",
                "type": [
                  "object",
                  "null"
                ]
              },
              "manager": {
                "description": "Manager is an identifier of the workflow managing these fields.",
                "type": [
                  "string",
                  "null"
                ]
              },
              "operation": {
                "description": "Operation is the type of operation which lead to this ManagedFieldsEntry being created. The only valid values for this field are 'Apply' and 'Update'.",
                "type": [
                  "string",
                  "null"
                ]
              },
              "subresource": {
                "description": "Subresource is the name of the subresource used to update that object, or empty string if the object was updated through the main resource. The value of this field is used to distinguish between managers, even if they share the same name. For example, a status update will be distinct from a regular update using the same manager name. Note that the APIVersion field is not related to the Subresource field and it always corresponds to the version of the main resource.",
                "type": [
                  "string",
                  "null"
                ]
              },
              "time": {
                "description": "Time is a wrapper around time.Time which supports correct marshaling to YAML and JSON.  Wrappers are provided for many of the factory methods that the time package offers.",
                "format": "date-time",
                "type": [
                  "string",
                  "null"
                ]
              }
            },
            "type": [
              "object",
              "null"
            ]
          },
          "type": [
            "array",
            "null"
          ]
        },
        "name": {
          "description": "Name must be unique within a namespace. Is required when creating resources, although some resources may allow a client to request the generation of an appropriate name automatically. Name is primarily intended for creation idempotence and configuration definition. Cannot be updated. More info: http://kubernetes.io/docs/user-guide/identifiers#names",
          "type": [
            "string",
            "null"
          ]
        },
        "namespace": {
          "description": "Namespace defines the space within which each name must be unique. An empty namespace is equivalent to the \"default\" namespace, but \"default\" is the canonical representation. Not all objects are required to be scoped to a namespace - the value of this field for those objects will be empty.\n\nMust be a DNS_LABEL. Cannot be updated. More info: http://kubernetes.io/docs/user-guide/namespaces",
          "type": [
            "string",
            "null"
          ]
        },
        "ownerReferences": {
          "description": "List of objects depended by this object. If ALL objects in the list have been deleted, this object will be garbage collected. If this object is managed by a controller, then an entry in this list will point to this controller, with the controller field set to true. There cannot be more than one managing controller.",
          "items": {
            "description": "OwnerReference contains enough information to let you identify an owning object. An owning object must be in the same namespace as the dependent, or be cluster-scoped, so there is no namespace field.",
            "properties": {
              "apiVersion": {
                "description": "API version of the referent.",
                "type": "string"
              },
              "blockOwnerDeletion": {
                "description": "If true, AND if the owner has the \"foregroundDeletion\" finalizer, then the owner cannot be deleted from the key-value store until this reference is removed. Defaults to false. To set this field, a user needs \"delete\" permission of the owner, otherwise 422 (Unprocessable Entity) will be returned.",
                "type": [
                  "boolean",
                  "null"
                ]
              },
              "controller": {
                "description": "If true, this reference points to the managing controller.",
                "type": [
                  "boolean",
                  "null"
                ]
              },
              "kind": {
                "description": "Kind of the referent. More info: https://git.k8s.io/community/contributors/devel/sig-architecture/api-conventions.md#types-kinds",
                "type": "string"
              },
              "name": {
                "description": "Name of the referent. More info: http://kubernetes.io/docs/user-guide/identifiers#names",
                "type": "string"
              },
              "uid": {
                "description": "UID of the referent. More info: http://kubernetes.io/docs/user-guide/identifiers#uids",
                "type": "string"
              }
            },
            "required": [
              "apiVersion",
              "kind",
              "name",
              "uid"
            ],
            "type": [
              "object",
              "null"
            ],
            "x-kubernetes-map-type": "atomic"
          },
          "type": [
            "array",
            "null"
          ],
          "x-kubernetes-patch-merge-key": "uid",
          "x-kubernetes-patch-strategy": "merge"
        },
        "resourceVersion": {
          "description": "An opaque value that represents the internal version of this object that can be used by clients to determine when objects have changed. May be used for optimistic concurrency, change detection, and the watch operation on a resource or set of resources. Clients must treat these values as opaque and passed unmodified back to the server. They may only be valid for a particular resource or set of resources.\n\nPopulated by the system. Read-only. Value must be treated as opaque by clients and . More info: https://git.k8s.io/community/contributors/devel/sig-architecture/api-conventions.md#concurrency-control-and-consistency",
          "type": [
            "string",
            "null"
          ]
        },
        "selfLink": {
          "description": "SelfLink is a URL representing this object. Populated by the system. Read-only.\n\nDEPRECATED Kubernetes will stop propagating this field in 1.20 release and the field is planned to be removed in 1.21 release.",
          "type": [
            "string",
            "null"
          ]
        },
        "uid": {
          "description": "UID is the unique in time and space value for this object. It is typically generated by the server on successful creation of a resource and is not allowed to change on PUT operations.\n\nPopulated by the system. Read-only. More info: http://kubernetes.io/docs/user-guide/identifiers#uids",
          "type": [
            "string",
            "null"
          ]
        }
      },
      "type": [
        "object",
        "null"
      ]
    },
    "spec": {
      "description": "CertificateSigningRequestSpec contains the certificate request.",
      "properties": {
        "extra": {
          "additionalProperties": {
            "items": {
              "type": [
                "string",
                "null"
              ]
            },
            "type": [
              "array",
              "null"
            ]
          },
          "description": "extra contains extra attributes of the user that created the CertificateSigningRequest. Populated by the API server on creation and immutable.",
          "type": [
            "object",
            "null"
          ]
        },
        "groups": {
          "description": "groups contains group membership of the user that created the CertificateSigningRequest. Populated by the API server on creation and immutable.",
          "items": {
            "type": [
              "string",
              "null"
            ]
          },
          "type": [
            "array",
            "null"
          ],
          "x-kubernetes-list-type": "atomic"
        },
        "request": {
          "description": "request contains an x509 certificate signing request encoded in a \"CERTIFICATE REQUEST\" PEM block. When serialized as JSON or YAML, the data is additionally base64-encoded.",
          "format": "byte",
          "type": "string",
          "x-kubernetes-list-type": "atomic"
        },
        "signerName": {
          "description": "signerName indicates the requested signer, and is a qualified name.\n\nList/watch requests for CertificateSigningRequests can filter on this field using a \"spec.signerName=NAME\" fieldSelector.\n\nWell-known Kubernetes signers are:\n 1. \"kubernetes.io/kube-apiserver-client\": issues client certificates that can be used to authenticate to kube-apiserver.\n  Requests for this signer are never auto-approved by kube-controller-manager, can be issued by the \"csrsigning\" controller in kube-controller-manager.\n 2. \"kubernetes.io/kube-apiserver-client-kubelet\": issues client certificates that kubelets use to authenticate to kube-apiserver.\n  Requests for this signer can be auto-approved by the \"csrapproving\" controller in kube-controller-manager, and can be issued by the \"csrsigning\" controller in kube-controller-manager.\n 3. \"kubernetes.io/kubelet-serving\" issues serving certificates that kubelets use to serve TLS endpoints, which kube-apiserver can connect to securely.\n  Requests for this signer are never auto-approved by kube-controller-manager, and can be issued by the \"csrsigning\" controller in kube-controller-manager.\n\nMore details are available at https://k8s.io/docs/reference/access-authn-authz/certificate-signing-requests/#kubernetes-signers\n\nCustom signerNames can also be specified. The signer defines:\n 1. Trust distribution: how trust (CA bundles) are distributed.\n 2. Permitted subjects: and behavior when a disallowed subject is requested.\n 3. Required, permitted, or forbidden x509 extensions in the request (including whether subjectAltNames are allowed, which types, restrictions on allowed values) and behavior when a disallowed extension is requested.\n 4. Required, permitted, or forbidden key usages / extended key usages.\n 5. Expiration/certificate lifetime: whether it is fixed by the signer, configurable by the admin.\n 6. Whether or not requests for CA certificates are allowed.",
          "type": "string"
        },
        "uid": {
          "description": "uid contains the uid of the user that created the CertificateSigningRequest. Populated by the API server on creation and immutable.",
          "type": [
            "string",
            "null"
          ]
        },
        "usages": {
          "description": "usages specifies a set of key usages requested in the issued certificate.\n\nRequests for TLS client certificates typically request: \"digital signature\", \"key encipherment\", \"client auth\".\n\nRequests for TLS serving certificates typically request: \"key encipherment\", \"digital signature\", \"server auth\".\n\nValid values are:\n \"signing\", \"digital signature\", \"content commitment\",\n \"key encipherment\", \"key agreement\", \"data encipherment\",\n \"cert sign\", \"crl sign\", \"encipher only\", \"decipher only\", \"any\",\n \"server auth\", \"client auth\",\n \"code signing\", \"email protection\", \"s/mime\",\n \"ipsec end system\", \"ipsec tunnel\", \"ipsec user\",\n \"timestamping\", \"ocsp signing\", \"microsoft sgc\", \"netscape sgc\"",
          "items": {
            "type": [
              "string",
              "null"
            ]
          },
          "type": [
            "array",
            "null"
          ],
          "x-kubernetes-list-type": "atomic"
        },
        "username": {
          "description": "username contains the name of the user that created the CertificateSigningRequest. Populated by the API server on creation and immutable.",
          "type": [
            "string",
            "null"
          ]
        }
      },
      "required": [
        "request",
        "signerName"
      ],
      "type": [
        "object",
        "null"
      ]
    },
    "status": {
      "description": "CertificateSigningRequestStatus contains conditions used to indicate approved/denied/failed status of the request, and the issued certificate.",
      "properties": {
        "certificate": {
          "description": "certificate is populated with an issued certificate by the signer after an Approved condition is present. This field is set via the /status subresource. Once populated, this field is immutable.\n\nIf the certificate signing request is denied, a condition of type \"Denied\" is added and this field remains empty. If the signer cannot issue the certificate, a condition of type \"Failed\" is added and this field remains empty.\n\nValidation requirements:\n 1. certificate must contain one or more PEM blocks.\n 2. All PEM blocks must have the \"CERTIFICATE\" label, contain no headers, and the encoded data\n  must be a BER-encoded ASN.1 Certificate structure as described in section 4 of RFC5280.\n 3. Non-PEM content may appear before or after the \"CERTIFICATE\" PEM blocks and is unvalidated,\n  to allow for explanatory text as described in section 5.2 of RFC7468.\n\nIf more than one PEM block is present, and the definition of the requested spec.signerName does not indicate otherwise, the first block is the issued certificate, and subsequent blocks should be treated as intermediate certificates and presented in TLS handshakes.\n\nThe certificate is encoded in PEM format.\n\nWhen serialized as JSON or YAML, the data is additionally base64-encoded, so it consists of:\n\n    base64(\n    -----BEGIN CERTIFICATE-----\n    ...\n    -----END CERTIFICATE-----\n    )",
          "format": "byte",
          "type": [
            "string",
            "null"
          ],
          "x-kubernetes-list-type": "atomic"
        },
        "conditions": {
          "description": "conditions applied to the request. Known conditions are \"Approved\", \"Denied\", and \"Failed\".",
          "items": {
            "description": "CertificateSigningRequestCondition describes a condition of a CertificateSigningRequest object",
            "properties": {
              "lastTransitionTime": {
                "description": "Time is a wrapper around time.Time which supports correct marshaling to YAML and JSON.  Wrappers are provided for many of the factory methods that the time package offers.",
                "format": "date-time",
                "type": [
                  "string",
                  "null"
                ]
              },
              "lastUpdateTime": {
                "description": "Time is a wrapper around time.Time which supports correct marshaling to YAML and JSON.  Wrappers are provided for many of the factory methods that the time package offers.",
                "format": "date-time",
                "type": [
                  "string",
                  "null"
                ]
              },
              "message": {
                "description": "message contains a human readable message with details about the request state",
                "type": [
                  "string",
                  "null"
                ]
              },
              "reason": {
                "description": "reason indicates a brief reason for the request state",
                "type": [
                  "string",
                  "null"
                ]
              },
              "status": {
                "description": "status of the condition, one of True, False, Unknown. Approved, Denied, and Failed conditions may not be \"False\" or \"Unknown\".",
                "type": "string"
              },
              "type": {
                "description": "type of the condition. Known conditions are \"Approved\", \"Denied\", and \"Failed\".\n\nAn \"Approved\" condition is added via the /approval subresource, indicating the request was approved and should be issued by the signer.\n\nA \"Denied\" condition is added via the /approval subresource, indicating the request was denied and should not be issued by the signer.\n\nA \"Failed\" condition is added via the /status subresource, indicating the signer failed to issue the certificate.\n\nApproved and Denied conditions are mutually exclusive. Approved, Denied, and Failed conditions cannot be removed once added.\n\nOnly one condition of a given type is allowed.",
                "type": "string"
              }
            },
            "required": [
              "type",
              "status"
            ],
            "type": [
              "object",
              "null"
            ]
          },
          "type": [
            "array",
            "null"
          ],
          "x-kubernetes-list-map-keys": [
            "type"
          ],
          "x-kubernetes-list-type": "map"
        }
      },
      "type": [
        "object",
        "null"
      ]
    }
  },
  "required": [
    "spec"
  ],
  "type": "object",
  "x-kubernetes-group-version-kind": [
    {
      "group": "certificates.k8s.io",
      "kind": "CertificateSigningRequest",
      "version": "v1"
    }
  ],
  "$schema": "http://json-schema.org/schema#"
}