{
  "description": "Represents an ephemeral volume that is handled by a normal storage driver.",
  "properties": {
    "volumeClaimTemplate": {
      "description": "PersistentVolumeClaimTemplate is used to produce PersistentVolumeClaim objects as part of an EphemeralVolumeSource.",
      "properties": {
        "metadata": {
          "description": "ObjectMeta is metadata that all persisted resources must have, which includes all objects users must create.",
          "properties": {
            "annotations": {
              "additionalProperties": {
                "type": [
                  "string",
                  "null"
                ]
              },
              "description": "Annotations is an unstructured key value map stored with a resource that may be set by external tools to store and retrieve arbitrary metadata. They are not queryable and should be preserved when modifying objects. More info: http://kubernetes.io/docs/user-guide/annotations",
              "type": [
                "object",
                "null"
              ]
            },
            "clusterName": {
              "description": "The name of the cluster which the object belongs to. This is used to distinguish resources with same name and namespace in different clusters. This field is not set anywhere right now and apiserver is going to ignore it if set in create or update request.",
              "type": [
                "string",
                "null"
              ]
            },
            "creationTimestamp": {
              "description": "Time is a wrapper around time.Time which supports correct marshaling to YAML and JSON.  Wrappers are provided for many of the factory methods that the time package offers.",
              "format": "date-time",
              "type": [
                "string",
                "null"
              ]
            },
            "deletionGracePeriodSeconds": {
              "description": "Number of seconds allowed for this object to gracefully terminate before it will be removed from the system. Only set when deletionTimestamp is also set. May only be shortened. Read-only.",
              "format": "int64",
              "type": [
                "integer",
                "null"
              ]
            },
            "deletionTimestamp": {
              "description": "Time is a wrapper around time.Time which supports correct marshaling to YAML and JSON.  Wrappers are provided for many of the factory methods that the time package offers.",
              "format": "date-time",
              "type": [
                "string",
                "null"
              ]
            },
            "finalizers": {
              "description": "Must be empty before the object is deleted from the registry. Each entry is an identifier for the responsible component that will remove the entry from the list. If the deletionTimestamp of the object is non-nil, entries in this list can only be removed. Finalizers may be processed and removed in any order.  Order is NOT enforced because it introduces significant risk of stuck finalizers. finalizers is a shared field, any actor with permission can reorder it. If the finalizer list is processed in order, then this can lead to a situation in which the component responsible for the first finalizer in the list is waiting for a signal (field value, external system, or other) produced by a component responsible for a finalizer later in the list, resulting in a deadlock. Without enforced ordering finalizers are free to order amongst themselves and are not vulnerable to ordering changes in the list.",
              "items": {
                "type": [
                  "string",
                  "null"
                ]
              },
              "type": [
                "array",
                "null"
              ],
              "x-kubernetes-patch-strategy": "merge"
            },
            "generateName": {
              "description": "GenerateName is an optional prefix, used by the server, to generate a unique name ONLY IF the Name field has not been provided. If this field is used, the name returned to the client will be different than the name passed. This value will also be combined with a unique suffix. The provided value has the same validation rules as the Name field, and may be truncated by the length of the suffix required to make the value unique on the server.\n\nIf this field is specified and the generated name exists, the server will NOT return a 409 - instead, it will either return 201 Created or 500 with Reason ServerTimeout indicating a unique name could not be found in the time allotted, and the client should retry (optionally after the time indicated in the Retry-After header).\n\nApplied only if Name is not specified. More info: https://git.k8s.io/community/contributors/devel/sig-architecture/api-conventions.md#idempotency",
              "type": [
                "string",
                "null"
              ]
            },
            "generation": {
              "description": "A sequence number representing a specific generation of the desired state. Populated by the system. Read-only.",
              "format": "int64",
              "type": [
                "integer",
                "null"
              ]
            },
            "labels": {
              "additionalProperties": {
                "type": [
                  "string",
                  "null"
                ]
              },
              "description": "Map of string keys and values that can be used to organize and categorize (scope and select) objects. May match selectors of replication controllers and services. More info: http://kubernetes.io/docs/user-guide/labels",
              "type": [
                "object",
                "null"
              ]
            },
            "managedFields": {
              "description": "ManagedFields maps workflow-id and version to the set of fields that are managed by that workflow. This is mostly for internal housekeeping, and users typically shouldn't need to set or understand this field. A workflow can be the user's name, a controller's name, or the name of a specific apply path like \"ci-cd\". The set of fields is always in the version that the workflow used when modifying the object.",
              "items": {
                "description": "ManagedFieldsEntry is a workflow-id, a FieldSet and the group version of the resource that the fieldset applies to.",
                "properties": {
                  "apiVersion": {
                    "description": "APIVersion defines the version of this resource that this field set applies to. The format is \"group/version\" just like the top-level APIVersion field. It is necessary to track the version of a field set because it cannot be automatically converted.",
                    "type": [
                      "string",
                      "null"
                    ]
                  },
                  "fieldsType": {
                    "description": "FieldsType is the discriminator for the different fields format and version. There is currently only one possible value: \"FieldsV1\"",
                    "type": [
                      "string",
                      "null"
                    ]
                  },
                  "fieldsV1": {
                    "description": "FieldsV1 stores a set of fields in a data structure like a Trie, in JSON format.\n\nEach key is either a '.' representing the field itself, and will always map to an empty set, or a string representing a sub-field or item. The string will follow one of these four formats: 'f:<name>', where <name> is the name of a field in a struct, or key in a map 'v:<value>', where <value> is the exact json formatted value of a list item 'i:<index>', where <index> is position of a item in a list 'k:<keys>', where <keys> is a map of  a list item's key fields to their unique values If a key maps to an empty Fields value, the field that key represents is part of the set.\n\nThe exact format is defined in sigs.k8s.io/structured-merge-diff",
                    "type": [
                      "object",
                      "null"
                    ]
                  },
                  "manager": {
                    "description": "Manager is an identifier of the workflow managing these fields.",
                    "type": [
                      "string",
                      "null"
                    ]
                  },
                  "operation": {
                    "description": "Operation is the type of operation which lead to this ManagedFieldsEntry being created. The only valid values for this field are 'Apply' and 'Update'.",
                    "type": [
                      "string",
                      "null"
                    ]
                  },
                  "subresource": {
                    "description": "Subresource is the name of the subresource used to update that object, or empty string if the object was updated through the main resource. The value of this field is used to distinguish between managers, even if they share the same name. For example, a status update will be distinct from a regular update using the same manager name. Note that the APIVersion field is not related to the Subresource field and it always corresponds to the version of the main resource.",
                    "type": [
                      "string",
                      "null"
                    ]
                  },
                  "time": {
                    "description": "Time is a wrapper around time.Time which supports correct marshaling to YAML and JSON.  Wrappers are provided for many of the factory methods that the time package offers.",
                    "format": "date-time",
                    "type": [
                      "string",
                      "null"
                    ]
                  }
                },
                "type": [
                  "object",
                  "null"
                ]
              },
              "type": [
                "array",
                "null"
              ]
            },
            "name": {
              "description": "Name must be unique within a namespace. Is required when creating resources, although some resources may allow a client to request the generation of an appropriate name automatically. Name is primarily intended for creation idempotence and configuration definition. Cannot be updated. More info: http://kubernetes.io/docs/user-guide/identifiers#names",
              "type": [
                "string",
                "null"
              ]
            },
            "namespace": {
              "description": "Namespace defines the space within which each name must be unique. An empty namespace is equivalent to the \"default\" namespace, but \"default\" is the canonical representation. Not all objects are required to be scoped to a namespace - the value of this field for those objects will be empty.\n\nMust be a DNS_LABEL. Cannot be updated. More info: http://kubernetes.io/docs/user-guide/namespaces",
              "type": [
                "string",
                "null"
              ]
            },
            "ownerReferences": {
              "description": "List of objects depended by this object. If ALL objects in the list have been deleted, this object will be garbage collected. If this object is managed by a controller, then an entry in this list will point to this controller, with the controller field set to true. There cannot be more than one managing controller.",
              "items": {
                "description": "OwnerReference contains enough information to let you identify an owning object. An owning object must be in the same namespace as the dependent, or be cluster-scoped, so there is no namespace field.",
                "properties": {
                  "apiVersion": {
                    "description": "API version of the referent.",
                    "type": "string"
                  },
                  "blockOwnerDeletion": {
                    "description": "If true, AND if the owner has the \"foregroundDeletion\" finalizer, then the owner cannot be deleted from the key-value store until this reference is removed. Defaults to false. To set this field, a user needs \"delete\" permission of the owner, otherwise 422 (Unprocessable Entity) will be returned.",
                    "type": [
                      "boolean",
                      "null"
                    ]
                  },
                  "controller": {
                    "description": "If true, this reference points to the managing controller.",
                    "type": [
                      "boolean",
                      "null"
                    ]
                  },
                  "kind": {
                    "description": "Kind of the referent. More info: https://git.k8s.io/community/contributors/devel/sig-architecture/api-conventions.md#types-kinds",
                    "type": "string"
                  },
                  "name": {
                    "description": "Name of the referent. More info: http://kubernetes.io/docs/user-guide/identifiers#names",
                    "type": "string"
                  },
                  "uid": {
                    "description": "UID of the referent. More info: http://kubernetes.io/docs/user-guide/identifiers#uids",
                    "type": "string"
                  }
                },
                "required": [
                  "apiVersion",
                  "kind",
                  "name",
                  "uid"
                ],
                "type": [
                  "object",
                  "null"
                ],
                "x-kubernetes-map-type": "atomic"
              },
              "type": [
                "array",
                "null"
              ],
              "x-kubernetes-patch-merge-key": "uid",
              "x-kubernetes-patch-strategy": "merge"
            },
            "resourceVersion": {
              "description": "An opaque value that represents the internal version of this object that can be used by clients to determine when objects have changed. May be used for optimistic concurrency, change detection, and the watch operation on a resource or set of resources. Clients must treat these values as opaque and passed unmodified back to the server. They may only be valid for a particular resource or set of resources.\n\nPopulated by the system. Read-only. Value must be treated as opaque by clients and . More info: https://git.k8s.io/community/contributors/devel/sig-architecture/api-conventions.md#concurrency-control-and-consistency",
              "type": [
                "string",
                "null"
              ]
            },
            "selfLink": {
              "description": "SelfLink is a URL representing this object. Populated by the system. Read-only.\n\nDEPRECATED Kubernetes will stop propagating this field in 1.20 release and the field is planned to be removed in 1.21 release.",
              "type": [
                "string",
                "null"
              ]
            },
            "uid": {
              "description": "UID is the unique in time and space value for this object. It is typically generated by the server on successful creation of a resource and is not allowed to change on PUT operations.\n\nPopulated by the system. Read-only. More info: http://kubernetes.io/docs/user-guide/identifiers#uids",
              "type": [
                "string",
                "null"
              ]
            }
          },
          "type": [
            "object",
            "null"
          ]
        },
        "spec": {
          "description": "PersistentVolumeClaimSpec describes the common attributes of storage devices and allows a Source for provider-specific attributes",
          "properties": {
            "accessModes": {
              "description": "AccessModes contains the desired access modes the volume should have. More info: https://kubernetes.io/docs/concepts/storage/persistent-volumes#access-modes-1",
              "items": {
                "type": [
                  "string",
                  "null"
                ]
              },
              "type": [
                "array",
                "null"
              ]
            },
            "dataSource": {
              "description": "TypedLocalObjectReference contains enough information to let you locate the typed referenced object inside the same namespace.",
              "properties": {
                "apiGroup": {
                  "description": "APIGroup is the group for the resource being referenced. If APIGroup is not specified, the specified Kind must be in the core API group. For any other third-party types, APIGroup is required.",
                  "type": [
                    "string",
                    "null"
                  ]
                },
                "kind": {
                  "description": "Kind is the type of resource being referenced",
                  "type": "string"
                },
                "name": {
                  "description": "Name is the name of resource being referenced",
                  "type": "string"
                }
              },
              "required": [
                "kind",
                "name"
              ],
              "type": [
                "object",
                "null"
              ],
              "x-kubernetes-map-type": "atomic"
            },
            "resources": {
              "description": "ResourceRequirements describes the compute resource requirements.",
              "properties": {
                "limits": {
                  "additionalProperties": {
                    "oneOf": [
                      {
                        "type": [
                          "string",
                          "null"
                        ]
                      },
                      {
                        "type": [
                          "number",
                          "null"
                        ]
                      }
                    ]
                  },
                  "description": "Limits describes the maximum amount of compute resources allowed. More info: https://kubernetes.io/docs/concepts/configuration/manage-resources-containers/",
                  "type": [
                    "object",
                    "null"
                  ]
                },
                "requests": {
                  "additionalProperties": {
                    "oneOf": [
                      {
                        "type": [
                          "string",
                          "null"
                        ]
                      },
                      {
                        "type": [
                          "number",
                          "null"
                        ]
                      }
                    ]
                  },
                  "description": "Requests describes the minimum amount of compute resources required. If Requests is omitted for a container, it defaults to Limits if that is explicitly specified, otherwise to an implementation-defined value. More info: https://kubernetes.io/docs/concepts/configuration/manage-resources-containers/",
                  "type": [
                    "object",
                    "null"
                  ]
                }
              },
              "type": [
                "object",
                "null"
              ]
            },
            "selector": {
              "description": "A label selector is a label query over a set of resources. The result of matchLabels and matchExpressions are ANDed. An empty label selector matches all objects. A null label selector matches no objects.",
              "properties": {
                "matchExpressions": {
                  "description": "matchExpressions is a list of label selector requirements. The requirements are ANDed.",
                  "items": {
                    "description": "A label selector requirement is a selector that contains values, a key, and an operator that relates the key and values.",
                    "properties": {
                      "key": {
                        "description": "key is the label key that the selector applies to.",
                        "type": "string",
                        "x-kubernetes-patch-merge-key": "key",
                        "x-kubernetes-patch-strategy": "merge"
                      },
                      "operator": {
                        "description": "operator represents a key's relationship to a set of values. Valid operators are In, NotIn, Exists and DoesNotExist.",
                        "type": "string"
                      },
                      "values": {
                        "description": "values is an array of string values. If the operator is In or NotIn, the values array must be non-empty. If the operator is Exists or DoesNotExist, the values array must be empty. This array is replaced during a strategic merge patch.",
                        "items": {
                          "type": [
                            "string",
                            "null"
                          ]
                        },
                        "type": [
                          "array",
                          "null"
                        ]
                      }
                    },
                    "required": [
                      "key",
                      "operator"
                    ],
                    "type": [
                      "object",
                      "null"
                    ]
                  },
                  "type": [
                    "array",
                    "null"
                  ]
                },
                "matchLabels": {
                  "additionalProperties": {
                    "type": [
                      "string",
                      "null"
                    ]
                  },
                  "description": "matchLabels is a map of {key,value} pairs. A single {key,value} in the matchLabels map is equivalent to an element of matchExpressions, whose key field is \"key\", the operator is \"In\", and the values array contains only \"value\". The requirements are ANDed.",
                  "type": [
                    "object",
                    "null"
                  ]
                }
              },
              "type": [
                "object",
                "null"
              ],
              "x-kubernetes-map-type": "atomic"
            },
            "storageClassName": {
              "description": "Name of the StorageClass required by the claim. More info: https://kubernetes.io/docs/concepts/storage/persistent-volumes#class-1",
              "type": [
                "string",
                "null"
              ]
            },
            "volumeMode": {
              "description": "volumeMode defines what type of volume is required by the claim. Value of Filesystem is implied when not included in claim spec.",
              "type": [
                "string",
                "null"
              ]
            },
            "volumeName": {
              "description": "VolumeName is the binding reference to the PersistentVolume backing this claim.",
              "type": [
                "string",
                "null"
              ]
            }
          },
          "type": "object"
        }
      },
      "required": [
        "spec"
      ],
      "type": [
        "object",
        "null"
      ]
    }
  },
  "type": "object",
  "$schema": "http://json-schema.org/schema#"
}