{
  "description": "NodeList is the whole list of all Nodes which have been registered with master.",
  "properties": {
    "apiVersion": {
      "description": "APIVersion defines the versioned schema of this representation of an object. Servers should convert recognized schemas to the latest internal value, and may reject unrecognized values. More info: https://git.k8s.io/community/contributors/devel/sig-architecture/api-conventions.md#resources",
      "type": [
        "string",
        "null"
      ]
    },
    "items": {
      "description": "List of nodes",
      "items": {
        "description": "Node is a worker node in Kubernetes. Each node will have a unique identifier in the cache (i.e. in etcd).",
        "properties": {
          "apiVersion": {
            "description": "APIVersion defines the versioned schema of this representation of an object. Servers should convert recognized schemas to the latest internal value, and may reject unrecognized values. More info: https://git.k8s.io/community/contributors/devel/sig-architecture/api-conventions.md#resources",
            "type": [
              "string",
              "null"
            ]
          },
          "kind": {
            "description": "Kind is a string value representing the REST resource this object represents. Servers may infer this from the endpoint the client submits requests to. Cannot be updated. In CamelCase. More info: https://git.k8s.io/community/contributors/devel/sig-architecture/api-conventions.md#types-kinds",
            "type": [
              "string",
              "null"
            ],
            "enum": [
              "Node"
            ]
          },
          "metadata": {
            "description": "ObjectMeta is metadata that all persisted resources must have, which includes all objects users must create.",
            "properties": {
              "annotations": {
                "additionalProperties": {
                  "type": [
                    "string",
                    "null"
                  ]
                },
                "description": "Annotations is an unstructured key value map stored with a resource that may be set by external tools to store and retrieve arbitrary metadata. They are not queryable and should be preserved when modifying objects. More info: http://kubernetes.io/docs/user-guide/annotations",
                "type": [
                  "object",
                  "null"
                ]
              },
              "clusterName": {
                "description": "The name of the cluster which the object belongs to. This is used to distinguish resources with same name and namespace in different clusters. This field is not set anywhere right now and apiserver is going to ignore it if set in create or update request.",
                "type": [
                  "string",
                  "null"
                ]
              },
              "creationTimestamp": {
                "description": "Time is a wrapper around time.Time which supports correct marshaling to YAML and JSON.  Wrappers are provided for many of the factory methods that the time package offers.",
                "format": "date-time",
                "type": [
                  "string",
                  "null"
                ]
              },
              "deletionGracePeriodSeconds": {
                "description": "Number of seconds allowed for this object to gracefully terminate before it will be removed from the system. Only set when deletionTimestamp is also set. May only be shortened. Read-only.",
                "format": "int64",
                "type": [
                  "integer",
                  "null"
                ]
              },
              "deletionTimestamp": {
                "description": "Time is a wrapper around time.Time which supports correct marshaling to YAML and JSON.  Wrappers are provided for many of the factory methods that the time package offers.",
                "format": "date-time",
                "type": [
                  "string",
                  "null"
                ]
              },
              "finalizers": {
                "description": "Must be empty before the object is deleted from the registry. Each entry is an identifier for the responsible component that will remove the entry from the list. If the deletionTimestamp of the object is non-nil, entries in this list can only be removed. Finalizers may be processed and removed in any order.  Order is NOT enforced because it introduces significant risk of stuck finalizers. finalizers is a shared field, any actor with permission can reorder it. If the finalizer list is processed in order, then this can lead to a situation in which the component responsible for the first finalizer in the list is waiting for a signal (field value, external system, or other) produced by a component responsible for a finalizer later in the list, resulting in a deadlock. Without enforced ordering finalizers are free to order amongst themselves and are not vulnerable to ordering changes in the list.",
                "items": {
                  "type": [
                    "string",
                    "null"
                  ]
                },
                "type": [
                  "array",
                  "null"
                ],
                "x-kubernetes-patch-strategy": "merge"
              },
              "generateName": {
                "description": "GenerateName is an optional prefix, used by the server, to generate a unique name ONLY IF the Name field has not been provided. If this field is used, the name returned to the client will be different than the name passed. This value will also be combined with a unique suffix. The provided value has the same validation rules as the Name field, and may be truncated by the length of the suffix required to make the value unique on the server.\n\nIf this field is specified and the generated name exists, the server will NOT return a 409 - instead, it will either return 201 Created or 500 with Reason ServerTimeout indicating a unique name could not be found in the time allotted, and the client should retry (optionally after the time indicated in the Retry-After header).\n\nApplied only if Name is not specified. More info: https://git.k8s.io/community/contributors/devel/sig-architecture/api-conventions.md#idempotency",
                "type": [
                  "string",
                  "null"
                ]
              },
              "generation": {
                "description": "A sequence number representing a specific generation of the desired state. Populated by the system. Read-only.",
                "format": "int64",
                "type": [
                  "integer",
                  "null"
                ]
              },
              "labels": {
                "additionalProperties": {
                  "type": [
                    "string",
                    "null"
                  ]
                },
                "description": "Map of string keys and values that can be used to organize and categorize (scope and select) objects. May match selectors of replication controllers and services. More info: http://kubernetes.io/docs/user-guide/labels",
                "type": [
                  "object",
                  "null"
                ]
              },
              "managedFields": {
                "description": "ManagedFields maps workflow-id and version to the set of fields that are managed by that workflow. This is mostly for internal housekeeping, and users typically shouldn't need to set or understand this field. A workflow can be the user's name, a controller's name, or the name of a specific apply path like \"ci-cd\". The set of fields is always in the version that the workflow used when modifying the object.",
                "items": {
                  "description": "ManagedFieldsEntry is a workflow-id, a FieldSet and the group version of the resource that the fieldset applies to.",
                  "properties": {
                    "apiVersion": {
                      "description": "APIVersion defines the version of this resource that this field set applies to. The format is \"group/version\" just like the top-level APIVersion field. It is necessary to track the version of a field set because it cannot be automatically converted.",
                      "type": [
                        "string",
                        "null"
                      ]
                    },
                    "fieldsType": {
                      "description": "FieldsType is the discriminator for the different fields format and version. There is currently only one possible value: \"FieldsV1\"",
                      "type": [
                        "string",
                        "null"
                      ]
                    },
                    "fieldsV1": {
                      "description": "FieldsV1 stores a set of fields in a data structure like a Trie, in JSON format.\n\nEach key is either a '.' representing the field itself, and will always map to an empty set, or a string representing a sub-field or item. The string will follow one of these four formats: 'f:<name>', where <name> is the name of a field in a struct, or key in a map 'v:<value>', where <value> is the exact json formatted value of a list item 'i:<index>', where <index> is position of a item in a list 'k:<keys>', where <keys> is a map of  a list item's key fields to their unique values If a key maps to an empty Fields value, the field that key represents is part of the set.\n\nThe exact format is defined in sigs.k8s.io/structured-merge-diff",
                      "type": [
                        "object",
                        "null"
                      ]
                    },
                    "manager": {
                      "description": "Manager is an identifier of the workflow managing these fields.",
                      "type": [
                        "string",
                        "null"
                      ]
                    },
                    "operation": {
                      "description": "Operation is the type of operation which lead to this ManagedFieldsEntry being created. The only valid values for this field are 'Apply' and 'Update'.",
                      "type": [
                        "string",
                        "null"
                      ]
                    },
                    "subresource": {
                      "description": "Subresource is the name of the subresource used to update that object, or empty string if the object was updated through the main resource. The value of this field is used to distinguish between managers, even if they share the same name. For example, a status update will be distinct from a regular update using the same manager name. Note that the APIVersion field is not related to the Subresource field and it always corresponds to the version of the main resource.",
                      "type": [
                        "string",
                        "null"
                      ]
                    },
                    "time": {
                      "description": "Time is a wrapper around time.Time which supports correct marshaling to YAML and JSON.  Wrappers are provided for many of the factory methods that the time package offers.",
                      "format": "date-time",
                      "type": [
                        "string",
                        "null"
                      ]
                    }
                  },
                  "type": [
                    "object",
                    "null"
                  ]
                },
                "type": [
                  "array",
                  "null"
                ]
              },
              "name": {
                "description": "Name must be unique within a namespace. Is required when creating resources, although some resources may allow a client to request the generation of an appropriate name automatically. Name is primarily intended for creation idempotence and configuration definition. Cannot be updated. More info: http://kubernetes.io/docs/user-guide/identifiers#names",
                "type": [
                  "string",
                  "null"
                ]
              },
              "namespace": {
                "description": "Namespace defines the space within which each name must be unique. An empty namespace is equivalent to the \"default\" namespace, but \"default\" is the canonical representation. Not all objects are required to be scoped to a namespace - the value of this field for those objects will be empty.\n\nMust be a DNS_LABEL. Cannot be updated. More info: http://kubernetes.io/docs/user-guide/namespaces",
                "type": [
                  "string",
                  "null"
                ]
              },
              "ownerReferences": {
                "description": "List of objects depended by this object. If ALL objects in the list have been deleted, this object will be garbage collected. If this object is managed by a controller, then an entry in this list will point to this controller, with the controller field set to true. There cannot be more than one managing controller.",
                "items": {
                  "description": "OwnerReference contains enough information to let you identify an owning object. An owning object must be in the same namespace as the dependent, or be cluster-scoped, so there is no namespace field.",
                  "properties": {
                    "apiVersion": {
                      "description": "API version of the referent.",
                      "type": "string"
                    },
                    "blockOwnerDeletion": {
                      "description": "If true, AND if the owner has the \"foregroundDeletion\" finalizer, then the owner cannot be deleted from the key-value store until this reference is removed. Defaults to false. To set this field, a user needs \"delete\" permission of the owner, otherwise 422 (Unprocessable Entity) will be returned.",
                      "type": [
                        "boolean",
                        "null"
                      ]
                    },
                    "controller": {
                      "description": "If true, this reference points to the managing controller.",
                      "type": [
                        "boolean",
                        "null"
                      ]
                    },
                    "kind": {
                      "description": "Kind of the referent. More info: https://git.k8s.io/community/contributors/devel/sig-architecture/api-conventions.md#types-kinds",
                      "type": "string"
                    },
                    "name": {
                      "description": "Name of the referent. More info: http://kubernetes.io/docs/user-guide/identifiers#names",
                      "type": "string"
                    },
                    "uid": {
                      "description": "UID of the referent. More info: http://kubernetes.io/docs/user-guide/identifiers#uids",
                      "type": "string"
                    }
                  },
                  "required": [
                    "apiVersion",
                    "kind",
                    "name",
                    "uid"
                  ],
                  "type": [
                    "object",
                    "null"
                  ],
                  "x-kubernetes-map-type": "atomic"
                },
                "type": [
                  "array",
                  "null"
                ],
                "x-kubernetes-patch-merge-key": "uid",
                "x-kubernetes-patch-strategy": "merge"
              },
              "resourceVersion": {
                "description": "An opaque value that represents the internal version of this object that can be used by clients to determine when objects have changed. May be used for optimistic concurrency, change detection, and the watch operation on a resource or set of resources. Clients must treat these values as opaque and passed unmodified back to the server. They may only be valid for a particular resource or set of resources.\n\nPopulated by the system. Read-only. Value must be treated as opaque by clients and . More info: https://git.k8s.io/community/contributors/devel/sig-architecture/api-conventions.md#concurrency-control-and-consistency",
                "type": [
                  "string",
                  "null"
                ]
              },
              "selfLink": {
                "description": "SelfLink is a URL representing this object. Populated by the system. Read-only.\n\nDEPRECATED Kubernetes will stop propagating this field in 1.20 release and the field is planned to be removed in 1.21 release.",
                "type": [
                  "string",
                  "null"
                ]
              },
              "uid": {
                "description": "UID is the unique in time and space value for this object. It is typically generated by the server on successful creation of a resource and is not allowed to change on PUT operations.\n\nPopulated by the system. Read-only. More info: http://kubernetes.io/docs/user-guide/identifiers#uids",
                "type": [
                  "string",
                  "null"
                ]
              }
            },
            "type": [
              "object",
              "null"
            ]
          },
          "spec": {
            "description": "NodeSpec describes the attributes that a node is created with.",
            "properties": {
              "configSource": {
                "description": "NodeConfigSource specifies a source of node configuration. Exactly one subfield (excluding metadata) must be non-nil.",
                "properties": {
                  "configMap": {
                    "description": "ConfigMapNodeConfigSource contains the information to reference a ConfigMap as a config source for the Node.",
                    "properties": {
                      "kubeletConfigKey": {
                        "description": "KubeletConfigKey declares which key of the referenced ConfigMap corresponds to the KubeletConfiguration structure This field is required in all cases.",
                        "type": "string"
                      },
                      "name": {
                        "description": "Name is the metadata.name of the referenced ConfigMap. This field is required in all cases.",
                        "type": "string"
                      },
                      "namespace": {
                        "description": "Namespace is the metadata.namespace of the referenced ConfigMap. This field is required in all cases.",
                        "type": "string"
                      },
                      "resourceVersion": {
                        "description": "ResourceVersion is the metadata.ResourceVersion of the referenced ConfigMap. This field is forbidden in Node.Spec, and required in Node.Status.",
                        "type": [
                          "string",
                          "null"
                        ]
                      },
                      "uid": {
                        "description": "UID is the metadata.UID of the referenced ConfigMap. This field is forbidden in Node.Spec, and required in Node.Status.",
                        "type": [
                          "string",
                          "null"
                        ]
                      }
                    },
                    "required": [
                      "namespace",
                      "name",
                      "kubeletConfigKey"
                    ],
                    "type": [
                      "object",
                      "null"
                    ]
                  }
                },
                "type": [
                  "object",
                  "null"
                ]
              },
              "externalID": {
                "description": "Deprecated. Not all kubelets will set this field. Remove field after 1.13. see: https://issues.k8s.io/61966",
                "type": [
                  "string",
                  "null"
                ]
              },
              "podCIDR": {
                "description": "PodCIDR represents the pod IP range assigned to the node.",
                "type": [
                  "string",
                  "null"
                ]
              },
              "podCIDRs": {
                "description": "podCIDRs represents the IP ranges assigned to the node for usage by Pods on that node. If this field is specified, the 0th entry must match the podCIDR field. It may contain at most 1 value for each of IPv4 and IPv6.",
                "items": {
                  "type": [
                    "string",
                    "null"
                  ]
                },
                "type": [
                  "array",
                  "null"
                ],
                "x-kubernetes-patch-strategy": "merge"
              },
              "providerID": {
                "description": "ID of the node assigned by the cloud provider in the format: <ProviderName>://<ProviderSpecificNodeID>",
                "type": [
                  "string",
                  "null"
                ]
              },
              "taints": {
                "description": "If specified, the node's taints.",
                "items": {
                  "description": "The node this Taint is attached to has the \"effect\" on any pod that does not tolerate the Taint.",
                  "properties": {
                    "effect": {
                      "description": "Required. The effect of the taint on pods that do not tolerate the taint. Valid effects are NoSchedule, PreferNoSchedule and NoExecute.",
                      "type": "string"
                    },
                    "key": {
                      "description": "Required. The taint key to be applied to a node.",
                      "type": "string"
                    },
                    "timeAdded": {
                      "description": "Time is a wrapper around time.Time which supports correct marshaling to YAML and JSON.  Wrappers are provided for many of the factory methods that the time package offers.",
                      "format": "date-time",
                      "type": [
                        "string",
                        "null"
                      ]
                    },
                    "value": {
                      "description": "The taint value corresponding to the taint key.",
                      "type": [
                        "string",
                        "null"
                      ]
                    }
                  },
                  "required": [
                    "key",
                    "effect"
                  ],
                  "type": [
                    "object",
                    "null"
                  ]
                },
                "type": [
                  "array",
                  "null"
                ]
              },
              "unschedulable": {
                "description": "Unschedulable controls node schedulability of new pods. By default, node is schedulable. More info: https://kubernetes.io/docs/concepts/nodes/node/#manual-node-administration",
                "type": [
                  "boolean",
                  "null"
                ]
              }
            },
            "type": [
              "object",
              "null"
            ]
          },
          "status": {
            "description": "NodeStatus is information about the current status of a node.",
            "properties": {
              "addresses": {
                "description": "List of addresses reachable to the node. Queried from cloud provider, if available. More info: https://kubernetes.io/docs/concepts/nodes/node/#addresses Note: This field is declared as mergeable, but the merge key is not sufficiently unique, which can cause data corruption when it is merged. Callers should instead use a full-replacement patch. See http://pr.k8s.io/79391 for an example.",
                "items": {
                  "description": "NodeAddress contains information for the node's address.",
                  "properties": {
                    "address": {
                      "description": "The node address.",
                      "type": "string"
                    },
                    "type": {
                      "description": "Node address type, one of Hostname, ExternalIP or InternalIP.",
                      "type": "string"
                    }
                  },
                  "required": [
                    "type",
                    "address"
                  ],
                  "type": [
                    "object",
                    "null"
                  ]
                },
                "type": [
                  "array",
                  "null"
                ],
                "x-kubernetes-patch-merge-key": "type",
                "x-kubernetes-patch-strategy": "merge"
              },
              "allocatable": {
                "additionalProperties": {
                  "oneOf": [
                    {
                      "type": [
                        "string",
                        "null"
                      ]
                    },
                    {
                      "type": [
                        "number",
                        "null"
                      ]
                    }
                  ]
                },
                "description": "Allocatable represents the resources of a node that are available for scheduling. Defaults to Capacity.",
                "type": [
                  "object",
                  "null"
                ]
              },
              "capacity": {
                "additionalProperties": {
                  "oneOf": [
                    {
                      "type": [
                        "string",
                        "null"
                      ]
                    },
                    {
                      "type": [
                        "number",
                        "null"
                      ]
                    }
                  ]
                },
                "description": "Capacity represents the total resources of a node. More info: https://kubernetes.io/docs/concepts/storage/persistent-volumes#capacity",
                "type": [
                  "object",
                  "null"
                ]
              },
              "conditions": {
                "description": "Conditions is an array of current observed node conditions. More info: https://kubernetes.io/docs/concepts/nodes/node/#condition",
                "items": {
                  "description": "NodeCondition contains condition information for a node.",
                  "properties": {
                    "lastHeartbeatTime": {
                      "description": "Time is a wrapper around time.Time which supports correct marshaling to YAML and JSON.  Wrappers are provided for many of the factory methods that the time package offers.",
                      "format": "date-time",
                      "type": [
                        "string",
                        "null"
                      ]
                    },
                    "lastTransitionTime": {
                      "description": "Time is a wrapper around time.Time which supports correct marshaling to YAML and JSON.  Wrappers are provided for many of the factory methods that the time package offers.",
                      "format": "date-time",
                      "type": [
                        "string",
                        "null"
                      ]
                    },
                    "message": {
                      "description": "Human readable message indicating details about last transition.",
                      "type": [
                        "string",
                        "null"
                      ]
                    },
                    "reason": {
                      "description": "(brief) reason for the condition's last transition.",
                      "type": [
                        "string",
                        "null"
                      ]
                    },
                    "status": {
                      "description": "Status of the condition, one of True, False, Unknown.",
                      "type": "string"
                    },
                    "type": {
                      "description": "Type of node condition.",
                      "type": "string"
                    }
                  },
                  "required": [
                    "type",
                    "status"
                  ],
                  "type": [
                    "object",
                    "null"
                  ]
                },
                "type": [
                  "array",
                  "null"
                ],
                "x-kubernetes-patch-merge-key": "type",
                "x-kubernetes-patch-strategy": "merge"
              },
              "config": {
                "description": "NodeConfigStatus describes the status of the config assigned by Node.Spec.ConfigSource.",
                "properties": {
                  "active": {
                    "description": "NodeConfigSource specifies a source of node configuration. Exactly one subfield (excluding metadata) must be non-nil.",
                    "properties": {
                      "configMap": {
                        "description": "ConfigMapNodeConfigSource contains the information to reference a ConfigMap as a config source for the Node.",
                        "properties": {
                          "kubeletConfigKey": {
                            "description": "KubeletConfigKey declares which key of the referenced ConfigMap corresponds to the KubeletConfiguration structure This field is required in all cases.",
                            "type": "string"
                          },
                          "name": {
                            "description": "Name is the metadata.name of the referenced ConfigMap. This field is required in all cases.",
                            "type": "string"
                          },
                          "namespace": {
                            "description": "Namespace is the metadata.namespace of the referenced ConfigMap. This field is required in all cases.",
                            "type": "string"
                          },
                          "resourceVersion": {
                            "description": "ResourceVersion is the metadata.ResourceVersion of the referenced ConfigMap. This field is forbidden in Node.Spec, and required in Node.Status.",
                            "type": [
                              "string",
                              "null"
                            ]
                          },
                          "uid": {
                            "description": "UID is the metadata.UID of the referenced ConfigMap. This field is forbidden in Node.Spec, and required in Node.Status.",
                            "type": [
                              "string",
                              "null"
                            ]
                          }
                        },
                        "required": [
                          "namespace",
                          "name",
                          "kubeletConfigKey"
                        ],
                        "type": [
                          "object",
                          "null"
                        ]
                      }
                    },
                    "type": [
                      "object",
                      "null"
                    ]
                  },
                  "assigned": {
                    "description": "NodeConfigSource specifies a source of node configuration. Exactly one subfield (excluding metadata) must be non-nil.",
                    "properties": {
                      "configMap": {
                        "description": "ConfigMapNodeConfigSource contains the information to reference a ConfigMap as a config source for the Node.",
                        "properties": {
                          "kubeletConfigKey": {
                            "description": "KubeletConfigKey declares which key of the referenced ConfigMap corresponds to the KubeletConfiguration structure This field is required in all cases.",
                            "type": "string"
                          },
                          "name": {
                            "description": "Name is the metadata.name of the referenced ConfigMap. This field is required in all cases.",
                            "type": "string"
                          },
                          "namespace": {
                            "description": "Namespace is the metadata.namespace of the referenced ConfigMap. This field is required in all cases.",
                            "type": "string"
                          },
                          "resourceVersion": {
                            "description": "ResourceVersion is the metadata.ResourceVersion of the referenced ConfigMap. This field is forbidden in Node.Spec, and required in Node.Status.",
                            "type": [
                              "string",
                              "null"
                            ]
                          },
                          "uid": {
                            "description": "UID is the metadata.UID of the referenced ConfigMap. This field is forbidden in Node.Spec, and required in Node.Status.",
                            "type": [
                              "string",
                              "null"
                            ]
                          }
                        },
                        "required": [
                          "namespace",
                          "name",
                          "kubeletConfigKey"
                        ],
                        "type": [
                          "object",
                          "null"
                        ]
                      }
                    },
                    "type": [
                      "object",
                      "null"
                    ]
                  },
                  "error": {
                    "description": "Error describes any problems reconciling the Spec.ConfigSource to the Active config. Errors may occur, for example, attempting to checkpoint Spec.ConfigSource to the local Assigned record, attempting to checkpoint the payload associated with Spec.ConfigSource, attempting to load or validate the Assigned config, etc. Errors may occur at different points while syncing config. Earlier errors (e.g. download or checkpointing errors) will not result in a rollback to LastKnownGood, and may resolve across Kubelet retries. Later errors (e.g. loading or validating a checkpointed config) will result in a rollback to LastKnownGood. In the latter case, it is usually possible to resolve the error by fixing the config assigned in Spec.ConfigSource. You can find additional information for debugging by searching the error message in the Kubelet log. Error is a human-readable description of the error state; machines can check whether or not Error is empty, but should not rely on the stability of the Error text across Kubelet versions.",
                    "type": [
                      "string",
                      "null"
                    ]
                  },
                  "lastKnownGood": {
                    "description": "NodeConfigSource specifies a source of node configuration. Exactly one subfield (excluding metadata) must be non-nil.",
                    "properties": {
                      "configMap": {
                        "description": "ConfigMapNodeConfigSource contains the information to reference a ConfigMap as a config source for the Node.",
                        "properties": {
                          "kubeletConfigKey": {
                            "description": "KubeletConfigKey declares which key of the referenced ConfigMap corresponds to the KubeletConfiguration structure This field is required in all cases.",
                            "type": "string"
                          },
                          "name": {
                            "description": "Name is the metadata.name of the referenced ConfigMap. This field is required in all cases.",
                            "type": "string"
                          },
                          "namespace": {
                            "description": "Namespace is the metadata.namespace of the referenced ConfigMap. This field is required in all cases.",
                            "type": "string"
                          },
                          "resourceVersion": {
                            "description": "ResourceVersion is the metadata.ResourceVersion of the referenced ConfigMap. This field is forbidden in Node.Spec, and required in Node.Status.",
                            "type": [
                              "string",
                              "null"
                            ]
                          },
                          "uid": {
                            "description": "UID is the metadata.UID of the referenced ConfigMap. This field is forbidden in Node.Spec, and required in Node.Status.",
                            "type": [
                              "string",
                              "null"
                            ]
                          }
                        },
                        "required": [
                          "namespace",
                          "name",
                          "kubeletConfigKey"
                        ],
                        "type": [
                          "object",
                          "null"
                        ]
                      }
                    },
                    "type": [
                      "object",
                      "null"
                    ]
                  }
                },
                "type": [
                  "object",
                  "null"
                ]
              },
              "daemonEndpoints": {
                "description": "NodeDaemonEndpoints lists ports opened by daemons running on the Node.",
                "properties": {
                  "kubeletEndpoint": {
                    "description": "DaemonEndpoint contains information about a single Daemon endpoint.",
                    "properties": {
                      "Port": {
                        "description": "Port number of the given endpoint.",
                        "format": "int32",
                        "type": "integer"
                      }
                    },
                    "required": [
                      "Port"
                    ],
                    "type": [
                      "object",
                      "null"
                    ]
                  }
                },
                "type": [
                  "object",
                  "null"
                ]
              },
              "images": {
                "description": "List of container images on this node",
                "items": {
                  "description": "Describe a container image",
                  "properties": {
                    "names": {
                      "description": "Names by which this image is known. e.g. [\"k8s.gcr.io/hyperkube:v1.0.7\", \"dockerhub.io/google_containers/hyperkube:v1.0.7\"]",
                      "items": {
                        "type": [
                          "string",
                          "null"
                        ]
                      },
                      "type": [
                        "array",
                        "null"
                      ]
                    },
                    "sizeBytes": {
                      "description": "The size of the image in bytes.",
                      "format": "int64",
                      "type": [
                        "integer",
                        "null"
                      ]
                    }
                  },
                  "type": [
                    "object",
                    "null"
                  ]
                },
                "type": [
                  "array",
                  "null"
                ]
              },
              "nodeInfo": {
                "description": "NodeSystemInfo is a set of ids/uuids to uniquely identify the node.",
                "properties": {
                  "architecture": {
                    "description": "The Architecture reported by the node",
                    "type": "string"
                  },
                  "bootID": {
                    "description": "Boot ID reported by the node.",
                    "type": "string"
                  },
                  "containerRuntimeVersion": {
                    "description": "ContainerRuntime Version reported by the node through runtime remote API (e.g. docker://1.5.0).",
                    "type": "string"
                  },
                  "kernelVersion": {
                    "description": "Kernel Version reported by the node from 'uname -r' (e.g. 3.16.0-0.bpo.4-amd64).",
                    "type": "string"
                  },
                  "kubeProxyVersion": {
                    "description": "KubeProxy Version reported by the node.",
                    "type": "string"
                  },
                  "kubeletVersion": {
                    "description": "Kubelet Version reported by the node.",
                    "type": "string"
                  },
                  "machineID": {
                    "description": "MachineID reported by the node. For unique machine identification in the cluster this field is preferred. Learn more from man(5) machine-id: http://man7.org/linux/man-pages/man5/machine-id.5.html",
                    "type": "string"
                  },
                  "operatingSystem": {
                    "description": "The Operating System reported by the node",
                    "type": "string"
                  },
                  "osImage": {
                    "description": "OS Image reported by the node from /etc/os-release (e.g. Debian GNU/Linux 7 (wheezy)).",
                    "type": "string"
                  },
                  "systemUUID": {
                    "description": "SystemUUID reported by the node. For unique machine identification MachineID is preferred. This field is specific to Red Hat hosts https://access.redhat.com/documentation/en-us/red_hat_subscription_management/1/html/rhsm/uuid",
                    "type": "string"
                  }
                },
                "required": [
                  "machineID",
                  "systemUUID",
                  "bootID",
                  "kernelVersion",
                  "osImage",
                  "containerRuntimeVersion",
                  "kubeletVersion",
                  "kubeProxyVersion",
                  "operatingSystem",
                  "architecture"
                ],
                "type": [
                  "object",
                  "null"
                ]
              },
              "phase": {
                "description": "NodePhase is the recently observed lifecycle phase of the node. More info: https://kubernetes.io/docs/concepts/nodes/node/#phase The field is never populated, and now is deprecated.",
                "type": [
                  "string",
                  "null"
                ]
              },
              "volumesAttached": {
                "description": "List of volumes that are attached to the node.",
                "items": {
                  "description": "AttachedVolume describes a volume attached to a node",
                  "properties": {
                    "devicePath": {
                      "description": "DevicePath represents the device path where the volume should be available",
                      "type": "string"
                    },
                    "name": {
                      "description": "Name of the attached volume",
                      "type": "string"
                    }
                  },
                  "required": [
                    "name",
                    "devicePath"
                  ],
                  "type": [
                    "object",
                    "null"
                  ]
                },
                "type": [
                  "array",
                  "null"
                ]
              },
              "volumesInUse": {
                "description": "List of attachable volumes in use (mounted) by the node.",
                "items": {
                  "type": [
                    "string",
                    "null"
                  ]
                },
                "type": [
                  "array",
                  "null"
                ]
              }
            },
            "type": [
              "object",
              "null"
            ]
          }
        },
        "type": [
          "object",
          "null"
        ],
        "x-kubernetes-group-version-kind": [
          {
            "group": "",
            "kind": "Node",
            "version": "v1"
          }
        ]
      },
      "type": [
        "array",
        "null"
      ]
    },
    "kind": {
      "description": "Kind is a string value representing the REST resource this object represents. Servers may infer this from the endpoint the client submits requests to. Cannot be updated. In CamelCase. More info: https://git.k8s.io/community/contributors/devel/sig-architecture/api-conventions.md#types-kinds",
      "type": [
        "string",
        "null"
      ],
      "enum": [
        "NodeList"
      ]
    },
    "metadata": {
      "description": "ListMeta describes metadata that synthetic resources must have, including lists and various status objects. A resource may have only one of {ObjectMeta, ListMeta}.",
      "properties": {
        "continue": {
          "description": "continue may be set if the user set a limit on the number of items returned, and indicates that the server has more data available. The value is opaque and may be used to issue another request to the endpoint that served this list to retrieve the next set of available objects. Continuing a consistent list may not be possible if the server configuration has changed or more than a few minutes have passed. The resourceVersion field returned when using this continue value will be identical to the value in the first response, unless you have received this token from an error message.",
          "type": [
            "string",
            "null"
          ]
        },
        "remainingItemCount": {
          "description": "remainingItemCount is the number of subsequent items in the list which are not included in this list response. If the list request contained label or field selectors, then the number of remaining items is unknown and the field will be left unset and omitted during serialization. If the list is complete (either because it is not chunking or because this is the last chunk), then there are no more remaining items and this field will be left unset and omitted during serialization. Servers older than v1.15 do not set this field. The intended use of the remainingItemCount is *estimating* the size of a collection. Clients should not rely on the remainingItemCount to be set or to be exact.",
          "format": "int64",
          "type": [
            "integer",
            "null"
          ]
        },
        "resourceVersion": {
          "description": "String that identifies the server's internal version of this object that can be used by clients to determine when objects have changed. Value must be treated as opaque by clients and passed unmodified back to the server. Populated by the system. Read-only. More info: https://git.k8s.io/community/contributors/devel/sig-architecture/api-conventions.md#concurrency-control-and-consistency",
          "type": [
            "string",
            "null"
          ]
        },
        "selfLink": {
          "description": "selfLink is a URL representing this object. Populated by the system. Read-only.\n\nDEPRECATED Kubernetes will stop propagating this field in 1.20 release and the field is planned to be removed in 1.21 release.",
          "type": [
            "string",
            "null"
          ]
        }
      },
      "type": [
        "object",
        "null"
      ]
    }
  },
  "required": [
    "items"
  ],
  "type": "object",
  "x-kubernetes-group-version-kind": [
    {
      "group": "",
      "kind": "NodeList",
      "version": "v1"
    }
  ],
  "$schema": "http://json-schema.org/schema#"
}